Housing Price Under the Influence of Covid-19 Pandemic
…
From the graph, we can have a general idea of the sale price of each borough. According to the graph, most of the house price is under 2 million, and Brooklyn and Manhattan have many houses that exceed 3 million.

## # A tibble: 34 x 2
##    ..date    AvePrice
##    <date>        <dbl>
##  1 2019-01-01  806948.
##  2 2019-02-01  794543.
##  3 2019-03-01  799521.
##  4 2019-04-01  790840.
##  5 2019-05-01  787669.
##  6 2019-06-01  872563.
##  7 2019-07-01  775672.
##  8 2019-08-01  796382.
##  9 2019-09-01  800808.
## 10 2019-10-01  816455.
## # ... with 24 more rows
…
